{
	"info": {
		"_postman_id": "145ab065-80d1-4167-852d-d7c2f249d755",
		"name": "symantec",
		"schema": "https://schema.getpostman.com/json/collection/v2.1.0/collection.json"
	},
	"item": [
		{
			"name": "/",
			"event": [
				{
					"listen": "test",
					"script": {
						"id": "96727876-7c4d-43ba-9004-0e80bf8f971f",
						"type": "text/javascript",
						"exec": [
							"pm.test(\"has-error\", function () {",
							"    pm.response.to.have.status(200);",
							"});"
						]
					}
				}
			],
			"request": {
				"method": "GET",
				"header": [],
				"body": {},
				"url": {
					"raw": "localhost:9000/",
					"host": [
						"localhost"
					],
					"port": "9000",
					"path": [
						""
					]
				}
			},
			"response": []
		},
		{
			"name": "/404 FAIL",
			"event": [
				{
					"listen": "test",
					"script": {
						"id": "f01c0551-a114-4a1d-b140-120039589f58",
						"type": "text/javascript",
						"exec": [
							"pm.test(\"has-error\", function () {",
							"    pm.response.to.have.status(401);",
							"});"
						]
					}
				}
			],
			"request": {
				"auth": {
					"type": "noauth"
				},
				"method": "GET",
				"header": [],
				"body": {},
				"url": {
					"raw": "localhost:9000/404",
					"host": [
						"localhost"
					],
					"port": "9000",
					"path": [
						"404"
					]
				}
			},
			"response": []
		},
		{
			"name": "/post/pedro BOOTSTRAP",
			"event": [
				{
					"listen": "test",
					"script": {
						"id": "a209fab9-a9a5-4e42-a95e-635ee3db7c92",
						"type": "text/javascript",
						"exec": [
							"pm.test(\"has-error\", function () {",
							"    pm.response.to.have.status(201);",
							"});"
						]
					}
				}
			],
			"request": {
				"auth": {
					"type": "basic",
					"basic": [
						{
							"key": "password",
							"value": "{{bootstrap.password}}",
							"type": "string"
						},
						{
							"key": "username",
							"value": "{{bootstrap.username}}",
							"type": "string"
						}
					]
				},
				"method": "POST",
				"header": [
					{
						"key": "Content-Type",
						"value": "application/json"
					}
				],
				"body": {
					"mode": "raw",
					"raw": "{\n\t\"name\": \"pedro\",\n\t\"password\": \"aaaPa789a.\",\n\t\"role\": \"user\"\n}"
				},
				"url": {
					"raw": "localhost:9000/users/",
					"host": [
						"localhost"
					],
					"port": "9000",
					"path": [
						"users",
						""
					]
				}
			},
			"response": []
		},
		{
			"name": "/post/pedro BOOTSTRAP FAIL",
			"event": [
				{
					"listen": "test",
					"script": {
						"id": "a209fab9-a9a5-4e42-a95e-635ee3db7c92",
						"type": "text/javascript",
						"exec": [
							"pm.test(\"has-error\", function () {",
							"    pm.response.to.have.status(201);",
							"});"
						]
					}
				}
			],
			"request": {
				"auth": {
					"type": "basic",
					"basic": [
						{
							"key": "password",
							"value": "{{bootstrap.password}}",
							"type": "string"
						},
						{
							"key": "username",
							"value": "{{bootstrap.username}}",
							"type": "string"
						}
					]
				},
				"method": "POST",
				"header": [
					{
						"key": "Content-Type",
						"value": "application/json"
					}
				],
				"body": {
					"mode": "raw",
					"raw": "{\n\t\"name\": \"pedro\",\n\t\"password\": \"aaaPa789a.\",\n\t\"role\": \"user\"\n}"
				},
				"url": {
					"raw": "localhost:9000/users/",
					"host": [
						"localhost"
					],
					"port": "9000",
					"path": [
						"users",
						""
					]
				}
			},
			"response": []
		},
		{
			"name": "/404 PASS",
			"event": [
				{
					"listen": "test",
					"script": {
						"id": "2c6535f9-c2be-426e-b6b6-36eed3b868df",
						"type": "text/javascript",
						"exec": [
							"pm.test(\"has-error\", function () {",
							"    pm.response.to.have.status(404);",
							"});"
						]
					}
				}
			],
			"request": {
				"auth": {
					"type": "basic",
					"basic": [
						{
							"key": "username",
							"value": "{{username}}",
							"type": "string"
						},
						{
							"key": "password",
							"value": "{{password}}",
							"type": "string"
						}
					]
				},
				"method": "GET",
				"header": [],
				"body": {},
				"url": {
					"raw": "localhost:9000/404",
					"host": [
						"localhost"
					],
					"port": "9000",
					"path": [
						"404"
					]
				}
			},
			"response": []
		},
		{
			"name": "/me",
			"event": [
				{
					"listen": "test",
					"script": {
						"id": "df65f2bc-90de-47b3-9a87-ef70dcaf5a78",
						"type": "text/javascript",
						"exec": [
							"pm.test(\"has-error\", function () {",
							"    pm.response.to.have.status(200);",
							"});"
						]
					}
				}
			],
			"request": {
				"auth": {
					"type": "basic",
					"basic": [
						{
							"key": "username",
							"value": "{{username}}",
							"type": "string"
						},
						{
							"key": "password",
							"value": "{{password}}",
							"type": "string"
						}
					]
				},
				"method": "GET",
				"header": [],
				"body": {},
				"url": {
					"raw": "localhost:9000/me",
					"host": [
						"localhost"
					],
					"port": "9000",
					"path": [
						"me"
					]
				}
			},
			"response": []
		},
		{
			"name": "/users/",
			"event": [
				{
					"listen": "test",
					"script": {
						"id": "ac756c21-dea2-43f0-8e69-5959574815eb",
						"type": "text/javascript",
						"exec": [
							"pm.test(\"has-error\", function () {",
							"    pm.response.to.have.status(200);",
							"});"
						]
					}
				}
			],
			"request": {
				"auth": {
					"type": "basic",
					"basic": [
						{
							"key": "username",
							"value": "{{username}}",
							"type": "string"
						},
						{
							"key": "password",
							"value": "{{password}}",
							"type": "string"
						}
					]
				},
				"method": "GET",
				"header": [],
				"body": {},
				"url": {
					"raw": "localhost:9000/users/",
					"host": [
						"localhost"
					],
					"port": "9000",
					"path": [
						"users",
						""
					]
				}
			},
			"response": []
		},
		{
			"name": "/users/<user-id>",
			"event": [
				{
					"listen": "test",
					"script": {
						"id": "2392a467-c2e7-4580-b36d-e1492009c5eb",
						"type": "text/javascript",
						"exec": [
							"pm.test(\"has-error\", function () {",
							"    pm.response.to.have.status(200);",
							"});"
						]
					}
				}
			],
			"request": {
				"auth": {
					"type": "basic",
					"basic": [
						{
							"key": "password",
							"value": "{{password}}",
							"type": "string"
						},
						{
							"key": "username",
							"value": "{{username}}",
							"type": "string"
						}
					]
				},
				"method": "GET",
				"header": [],
				"body": {},
				"url": {
					"raw": "localhost:9000/users/{{username}}",
					"host": [
						"localhost"
					],
					"port": "9000",
					"path": [
						"users",
						"{{username}}"
					]
				}
			},
			"response": []
		},
		{
			"name": "/users/<user-id> WRONG",
			"event": [
				{
					"listen": "test",
					"script": {
						"id": "2392a467-c2e7-4580-b36d-e1492009c5eb",
						"type": "text/javascript",
						"exec": [
							"pm.test(\"has-error\", function () {",
							"    pm.response.to.have.status(200);",
							"});"
						]
					}
				}
			],
			"request": {
				"auth": {
					"type": "basic",
					"basic": [
						{
							"key": "password",
							"value": "{{password}}",
							"type": "string"
						},
						{
							"key": "username",
							"value": "{{username}}",
							"type": "string"
						}
					]
				},
				"method": "GET",
				"header": [],
				"body": {},
				"url": {
					"raw": "localhost:9000/users/{{username}}-wrong",
					"host": [
						"localhost"
					],
					"port": "9000",
					"path": [
						"users",
						"{{username}}-wrong"
					]
				}
			},
			"response": []
		},
		{
			"name": "/users/<user-id> EMPTY",
			"event": [
				{
					"listen": "test",
					"script": {
						"id": "a3b57d0e-2570-49c6-9495-0bf4c2a322aa",
						"type": "text/javascript",
						"exec": [
							"pm.test(\"has-error\", function () {",
							"    pm.response.to.have.status(400);",
							"});"
						]
					}
				}
			],
			"request": {
				"auth": {
					"type": "basic",
					"basic": [
						{
							"key": "password",
							"value": "{{password}}",
							"type": "string"
						},
						{
							"key": "username",
							"value": "{{username}}",
							"type": "string"
						}
					]
				},
				"method": "POST",
				"header": [],
				"body": {},
				"url": {
					"raw": "localhost:9000/users/{{username}}",
					"host": [
						"localhost"
					],
					"port": "9000",
					"path": [
						"users",
						"{{username}}"
					]
				}
			},
			"response": []
		},
		{
			"name": "/users/<user-id>",
			"event": [
				{
					"listen": "prerequest",
					"script": {
						"id": "1b5be52d-5534-44a5-abdb-bc460a31d696",
						"type": "text/javascript",
						"exec": [
							""
						]
					}
				},
				{
					"listen": "test",
					"script": {
						"id": "68d638ca-890b-4c4e-be7c-7b6d19406ec3",
						"type": "text/javascript",
						"exec": [
							"pm.test(\"has-error\", function () {",
							"    pm.response.to.have.status(200);",
							"});"
						]
					}
				}
			],
			"request": {
				"auth": {
					"type": "basic",
					"basic": [
						{
							"key": "password",
							"value": "{{password}}",
							"type": "string"
						},
						{
							"key": "username",
							"value": "{{username}}",
							"type": "string"
						}
					]
				},
				"method": "POST",
				"header": [
					{
						"key": "Content-Type",
						"value": "application/json"
					}
				],
				"body": {
					"mode": "raw",
					"raw": "{\n\t\"notes\": \"Latest update.\"\n}"
				},
				"url": {
					"raw": "localhost:9000/users/{{username}}",
					"host": [
						"localhost"
					],
					"port": "9000",
					"path": [
						"users",
						"{{username}}"
					]
				}
			},
			"response": []
		},
		{
			"name": "/users/ FAIL",
			"event": [
				{
					"listen": "prerequest",
					"script": {
						"id": "0c85e8ea-0abf-4a09-a81b-dc229f37b5e4",
						"type": "text/javascript",
						"exec": [
							""
						]
					}
				},
				{
					"listen": "test",
					"script": {
						"id": "512aff1b-e900-4ec3-a783-29ad9c9c5f3a",
						"type": "text/javascript",
						"exec": [
							"pm.test(\"has-error\", function () {",
							"    pm.response.to.have.status(400);",
							"});"
						]
					}
				}
			],
			"request": {
				"auth": {
					"type": "basic",
					"basic": [
						{
							"key": "password",
							"value": "{{password}}",
							"type": "string"
						},
						{
							"key": "username",
							"value": "{{username}}",
							"type": "string"
						}
					]
				},
				"method": "POST",
				"header": [
					{
						"key": "Content-Type",
						"value": "application/json"
					}
				],
				"body": {
					"mode": "raw",
					"raw": "{\n\t\"notes\": \"New user!!\"\n}"
				},
				"url": {
					"raw": "localhost:9000/users/",
					"host": [
						"localhost"
					],
					"port": "9000",
					"path": [
						"users",
						""
					]
				}
			},
			"response": []
		},
		{
			"name": "/users/ PASS",
			"event": [
				{
					"listen": "prerequest",
					"script": {
						"id": "3ded8b17-a783-4a9b-99ed-7d9061ef3cbb",
						"type": "text/javascript",
						"exec": [
							""
						]
					}
				},
				{
					"listen": "test",
					"script": {
						"id": "f1cde24e-af26-4f9d-812a-f150ae0e987e",
						"type": "text/javascript",
						"exec": [
							"pm.test(\"has-error\", function () {",
							"    pm.response.to.have.status(201);",
							"});"
						]
					}
				}
			],
			"request": {
				"auth": {
					"type": "basic",
					"basic": [
						{
							"key": "password",
							"value": "{{password}}",
							"type": "string"
						},
						{
							"key": "username",
							"value": "{{username}}",
							"type": "string"
						}
					]
				},
				"method": "POST",
				"header": [
					{
						"key": "Content-Type",
						"value": "application/json"
					}
				],
				"body": {
					"mode": "raw",
					"raw": "{\n\t\"notes\": \"New user!!\",\n\t\"role\": \"user\",\n\t\"name\": \"TEST-123\",\n\t\"email\": \"pedro@dnb.no\",\n\t\"password\": \"Symantec.2018\"\n}"
				},
				"url": {
					"raw": "localhost:9000/users/",
					"host": [
						"localhost"
					],
					"port": "9000",
					"path": [
						"users",
						""
					]
				}
			},
			"response": []
		},
		{
			"name": "/users/<user-id> PASS",
			"event": [
				{
					"listen": "test",
					"script": {
						"id": "2392a467-c2e7-4580-b36d-e1492009c5eb",
						"type": "text/javascript",
						"exec": [
							"pm.test(\"has-error\", function () {",
							"    pm.response.to.have.status(200);",
							"});"
						]
					}
				}
			],
			"request": {
				"auth": {
					"type": "basic",
					"basic": [
						{
							"key": "password",
							"value": "{{password}}",
							"type": "string"
						},
						{
							"key": "username",
							"value": "{{username}}",
							"type": "string"
						}
					]
				},
				"method": "GET",
				"header": [],
				"body": {},
				"url": {
					"raw": "localhost:9000/users/{{test.username}}",
					"host": [
						"localhost"
					],
					"port": "9000",
					"path": [
						"users",
						"{{test.username}}"
					]
				}
			},
			"response": []
		},
		{
			"name": "/users/ FORBIDDEN",
			"event": [
				{
					"listen": "prerequest",
					"script": {
						"id": "9973aac9-d8ad-4aaa-8017-f052a9ab9dda",
						"type": "text/javascript",
						"exec": [
							""
						]
					}
				},
				{
					"listen": "test",
					"script": {
						"id": "512aff1b-e900-4ec3-a783-29ad9c9c5f3a",
						"type": "text/javascript",
						"exec": [
							"pm.test(\"has-error\", function () {",
							"    pm.response.to.have.status(400);",
							"});"
						]
					}
				}
			],
			"request": {
				"auth": {
					"type": "basic",
					"basic": [
						{
							"key": "password",
							"value": "{{password}}",
							"type": "string"
						},
						{
							"key": "username",
							"value": "{{username}}",
							"type": "string"
						}
					]
				},
				"method": "POST",
				"header": [
					{
						"key": "Content-Type",
						"value": "application/json"
					}
				],
				"body": {
					"mode": "raw",
					"raw": "{\n\t\"name\": \"this-should-fail\",\n\t\"role\": \"user\",\n\t\"email\": \"pedro@dnb.no\",\n\t\"password\": \"Symantec:2018\"\n}"
				},
				"url": {
					"raw": "localhost:9000/users/test-123",
					"host": [
						"localhost"
					],
					"port": "9000",
					"path": [
						"users",
						"test-123"
					]
				}
			},
			"response": []
		},
		{
			"name": "/users/ <user-id> PASS",
			"event": [
				{
					"listen": "prerequest",
					"script": {
						"id": "73d5e13b-2b6a-4426-b7b1-d0443bdcc908",
						"type": "text/javascript",
						"exec": [
							""
						]
					}
				},
				{
					"listen": "test",
					"script": {
						"id": "512aff1b-e900-4ec3-a783-29ad9c9c5f3a",
						"type": "text/javascript",
						"exec": [
							"pm.test(\"has-error\", function () {",
							"    pm.response.to.have.status(400);",
							"});"
						]
					}
				}
			],
			"request": {
				"auth": {
					"type": "basic",
					"basic": [
						{
							"key": "password",
							"value": "{{password}}",
							"type": "string"
						},
						{
							"key": "username",
							"value": "{{username}}",
							"type": "string"
						}
					]
				},
				"method": "DELETE",
				"header": [
					{
						"key": "Content-Type",
						"value": "application/json"
					}
				],
				"body": {
					"mode": "raw",
					"raw": ""
				},
				"url": {
					"raw": "localhost:9000/users/test-123",
					"host": [
						"localhost"
					],
					"port": "9000",
					"path": [
						"users",
						"test-123"
					]
				}
			},
			"response": []
		},
		{
			"name": "/users/ <user-id> WRONG",
			"event": [
				{
					"listen": "prerequest",
					"script": {
						"id": "a2cfe514-f66e-4dda-870f-60f6c73a7c3c",
						"type": "text/javascript",
						"exec": [
							""
						]
					}
				},
				{
					"listen": "test",
					"script": {
						"id": "272fcb43-9489-44b9-b4c7-9c5f35acb6a9",
						"type": "text/javascript",
						"exec": [
							"pm.test(\"has-error\", function () {",
							"    pm.response.to.have.status(404);",
							"});"
						]
					}
				}
			],
			"request": {
				"auth": {
					"type": "basic",
					"basic": [
						{
							"key": "password",
							"value": "{{password}}",
							"type": "string"
						},
						{
							"key": "username",
							"value": "{{username}}",
							"type": "string"
						}
					]
				},
				"method": "DELETE",
				"header": [
					{
						"key": "Content-Type",
						"value": "application/json"
					}
				],
				"body": {
					"mode": "raw",
					"raw": ""
				},
				"url": {
					"raw": "localhost:9000/users/test-456",
					"host": [
						"localhost"
					],
					"port": "9000",
					"path": [
						"users",
						"test-456"
					]
				}
			},
			"response": []
		},
		{
			"name": "/users/ <user-id> EMPTY",
			"event": [
				{
					"listen": "prerequest",
					"script": {
						"id": "a2cfe514-f66e-4dda-870f-60f6c73a7c3c",
						"type": "text/javascript",
						"exec": [
							""
						]
					}
				},
				{
					"listen": "test",
					"script": {
						"id": "7f959474-1149-414c-af66-c870a25f08c8",
						"type": "text/javascript",
						"exec": [
							"pm.test(\"has-error\", function () {",
							"    pm.response.to.have.status(400);",
							"});"
						]
					}
				}
			],
			"request": {
				"auth": {
					"type": "basic",
					"basic": [
						{
							"key": "password",
							"value": "{{password}}",
							"type": "string"
						},
						{
							"key": "username",
							"value": "{{username}}",
							"type": "string"
						}
					]
				},
				"method": "DELETE",
				"header": [
					{
						"key": "Content-Type",
						"value": "application/json"
					}
				],
				"body": {
					"mode": "raw",
					"raw": ""
				},
				"url": {
					"raw": "localhost:9000/users/",
					"host": [
						"localhost"
					],
					"port": "9000",
					"path": [
						"users",
						""
					]
				}
			},
			"response": []
		},
		{
			"name": "/users/<user-id> SUICIDE",
			"event": [
				{
					"listen": "prerequest",
					"script": {
						"id": "9126454b-845e-4421-bd36-c1d40881c24b",
						"type": "text/javascript",
						"exec": [
							""
						]
					}
				},
				{
					"listen": "test",
					"script": {
						"id": "6e5f559e-6563-4b5b-a71f-decfb355eb00",
						"type": "text/javascript",
						"exec": [
							"pm.test(\"has-error\", function () {",
							"    pm.response.to.have.status(403);",
							"});"
						]
					}
				}
			],
			"request": {
				"auth": {
					"type": "basic",
					"basic": [
						{
							"key": "password",
							"value": "{{password}}",
							"type": "string"
						},
						{
							"key": "username",
							"value": "{{username}}",
							"type": "string"
						}
					]
				},
				"method": "DELETE",
				"header": [
					{
						"key": "Content-Type",
						"value": "application/json"
					}
				],
				"body": {
					"mode": "raw",
					"raw": "{\n\t\"notes\": \"Update self\",\n\t\"role\": \"user\",\n\t\"email\": \"pedro@dnb.no\",\n\t\"password\": \"Symantec.2018\"\n}"
				},
				"url": {
					"raw": "localhost:9000/users/pedro",
					"host": [
						"localhost"
					],
					"port": "9000",
					"path": [
						"users",
						"pedro"
					]
				}
			},
			"response": []
		},
		{
			"name": "/users/ <user-id> EMPTY",
			"event": [
				{
					"listen": "prerequest",
					"script": {
						"id": "a2cfe514-f66e-4dda-870f-60f6c73a7c3c",
						"type": "text/javascript",
						"exec": [
							""
						]
					}
				},
				{
					"listen": "test",
					"script": {
						"id": "7f959474-1149-414c-af66-c870a25f08c8",
						"type": "text/javascript",
						"exec": [
							"pm.test(\"has-error\", function () {",
							"    pm.response.to.have.status(400);",
							"});"
						]
					}
				}
			],
			"request": {
				"auth": {
					"type": "basic",
					"basic": [
						{
							"key": "password",
							"value": "{{password}}",
							"type": "string"
						},
						{
							"key": "username",
							"value": "{{username}}",
							"type": "string"
						}
					]
				},
				"method": "PUT",
				"header": [
					{
						"key": "Content-Type",
						"value": "application/json"
					}
				],
				"body": {
					"mode": "raw",
					"raw": ""
				},
				"url": {
					"raw": "localhost:9000/users/",
					"host": [
						"localhost"
					],
					"port": "9000",
					"path": [
						"users",
						""
					]
				}
			},
			"response": []
		},
		{
			"name": "/users/ DENIED",
			"event": [
				{
					"listen": "prerequest",
					"script": {
						"id": "9126454b-845e-4421-bd36-c1d40881c24b",
						"type": "text/javascript",
						"exec": [
							""
						]
					}
				},
				{
					"listen": "test",
					"script": {
						"id": "6e5f559e-6563-4b5b-a71f-decfb355eb00",
						"type": "text/javascript",
						"exec": [
							"pm.test(\"has-error\", function () {",
							"    pm.response.to.have.status(403);",
							"});"
						]
					}
				}
			],
			"request": {
				"auth": {
					"type": "basic",
					"basic": [
						{
							"key": "password",
							"value": "{{test.password}}",
							"type": "string"
						},
						{
							"key": "username",
							"value": "{{test.username}}",
							"type": "string"
						}
					]
				},
				"method": "POST",
				"header": [
					{
						"key": "Content-Type",
						"value": "application/json"
					}
				],
				"body": {
					"mode": "raw",
					"raw": "{\n\t\"name\": \"this-should-fail\",\n\t\"role\": \"user\",\n\t\"email\": \"pedro@dnb.no\",\n\t\"password\": \"Symantec:2018\"\n}"
				},
				"url": {
					"raw": "localhost:9000/users/pedro",
					"host": [
						"localhost"
					],
					"port": "9000",
					"path": [
						"users",
						"pedro"
					]
				}
			},
			"response": []
		},
		{
			"name": "/users/ PASS",
			"event": [
				{
					"listen": "prerequest",
					"script": {
						"id": "9126454b-845e-4421-bd36-c1d40881c24b",
						"type": "text/javascript",
						"exec": [
							""
						]
					}
				},
				{
					"listen": "test",
					"script": {
						"id": "6e5f559e-6563-4b5b-a71f-decfb355eb00",
						"type": "text/javascript",
						"exec": [
							"pm.test(\"has-error\", function () {",
							"    pm.response.to.have.status(403);",
							"});"
						]
					}
				}
			],
			"request": {
				"auth": {
					"type": "basic",
					"basic": [
						{
							"key": "password",
							"value": "{{test.password}}",
							"type": "string"
						},
						{
							"key": "username",
							"value": "{{test.username}}",
							"type": "string"
						}
					]
				},
				"method": "POST",
				"header": [
					{
						"key": "Content-Type",
						"value": "application/json"
					}
				],
				"body": {
					"mode": "raw",
					"raw": "{\n\t\"notes\": \"Update self\",\n\t\"role\": \"user\",\n\t\"email\": \"pedro@dnb.no\",\n\t\"password\": \"Symantec.2018\"\n}"
				},
				"url": {
					"raw": "localhost:9000/users/test-123",
					"host": [
						"localhost"
					],
					"port": "9000",
					"path": [
						"users",
						"test-123"
					]
				}
			},
			"response": []
		}
	]
}